module gitlab.com/g-ogawa/cortex

go 1.17

require (
	cloud.google.com/go v0.99.0
	cloud.google.com/go/storage v1.10.0
	github.com/aws/aws-sdk-go v1.40.6
	github.com/davecgh/go-spew v1.1.1
	github.com/denormal/go-gitignore v0.0.0-20180930084346-ae8ad1d07817
	github.com/docker/docker v0.7.3-0.20190327010347-be7ac8be2ae0
	github.com/fatih/color v1.13.0
	github.com/getsentry/sentry-go v0.12.0
	github.com/gobwas/glob v0.2.3
	github.com/google/uuid v1.3.0
	github.com/gorilla/mux v1.8.0
	github.com/gorilla/websocket v1.4.2
	github.com/mitchellh/go-homedir v1.1.0
	github.com/pkg/errors v0.9.1
	github.com/prometheus/client_golang v1.12.0
	github.com/prometheus/common v0.32.1
	github.com/shirou/gopsutil v3.21.11+incompatible
	github.com/spf13/cobra v1.3.0
	github.com/spf13/pflag v1.0.5
	github.com/stretchr/testify v1.7.0
	github.com/ugorji/go/codec v1.1.7
	github.com/xlab/treeprint v1.0.0
	go.uber.org/zap v1.19.1
	golang.org/x/oauth2 v0.0.0-20211104180415-d3ed0bb246c8
	google.golang.org/api v0.62.0
	google.golang.org/genproto v0.0.0-20211208223120-3a66f561d7aa
	google.golang.org/grpc v1.42.0
	gopkg.in/karalabe/cookiejar.v2 v2.0.0-20150724131613-8dcd6a7f4951
	gopkg.in/segmentio/analytics-go.v3 v3.1.0
	istio.io/api v0.0.0-20211012192923-310f2a3f3c76
	istio.io/client-go v1.11.4
	k8s.io/api v0.23.2
	k8s.io/apimachinery v0.23.2
	k8s.io/client-go v0.23.2
)

require (
	cloud.google.com/go/container v1.0.0 // indirect
	github.com/Azure/go-ansiterm v0.0.0-20210617225240-d185dfc1b5a1 // indirect
	github.com/Microsoft/go-winio v0.4.17 // indirect
	github.com/VojtechVitek/rerun v0.0.3 // indirect
	github.com/beorn7/perks v1.0.1 // indirect
	github.com/census-instrumentation/opencensus-proto v0.3.0 // indirect
	github.com/cespare/xxhash/v2 v2.1.2 // indirect
	github.com/cilium/ebpf v0.8.0 // indirect
	github.com/cncf/udpa/go v0.0.0-20210930031921-04548b0d99d4 // indirect
	github.com/cncf/xds/go v0.0.0-20211130200136-a8f946100490 // indirect
	github.com/containerd/containerd v1.5.9 // indirect
	github.com/cosiner/argv v0.1.0 // indirect
	github.com/cpuguy83/go-md2man/v2 v2.0.1 // indirect
	github.com/danwakefield/fnmatch v0.0.0-20160403171240-cbb64ac3d964 // indirect
	github.com/derekparker/trie v0.0.0-20200317170641-1fdf38b7b0e9 // indirect
	github.com/docker/distribution v2.7.1+incompatible // indirect
	github.com/docker/go-connections v0.4.0 // indirect
	github.com/docker/go-units v0.4.0 // indirect
	github.com/envoyproxy/go-control-plane v0.10.1 // indirect
	github.com/envoyproxy/protoc-gen-validate v0.6.2 // indirect
	github.com/fsnotify/fsnotify v1.5.1 // indirect
	github.com/go-delve/delve v1.8.0 // indirect
	github.com/go-logr/logr v1.2.2 // indirect
	github.com/go-ole/go-ole v1.2.6 // indirect
	github.com/gogo/protobuf v1.3.2 // indirect
	github.com/golang/groupcache v0.0.0-20210331224755-41bb18bfe9da // indirect
	github.com/golang/protobuf v1.5.2 // indirect
	github.com/google/go-cmp v0.5.7 // indirect
	github.com/google/go-dap v0.6.0 // indirect
	github.com/google/gofuzz v1.2.0 // indirect
	github.com/googleapis/gax-go/v2 v2.1.1 // indirect
	github.com/googleapis/gnostic v0.5.5 // indirect
	github.com/hashicorp/golang-lru v0.5.4 // indirect
	github.com/imdario/mergo v0.3.12 // indirect
	github.com/inconshreveable/mousetrap v1.0.0 // indirect
	github.com/jmespath/go-jmespath v0.4.0 // indirect
	github.com/json-iterator/go v1.1.12 // indirect
	github.com/jstemmer/go-junit-report v0.9.1 // indirect
	github.com/kyoh86/looppointer v0.1.7 // indirect
	github.com/kyoh86/nolint v0.0.1 // indirect
	github.com/mattn/go-colorable v0.1.12 // indirect
	github.com/mattn/go-isatty v0.0.14 // indirect
	github.com/mattn/go-runewidth v0.0.13 // indirect
	github.com/matttproud/golang_protobuf_extensions v1.0.2-0.20181231171920-c182affec369 // indirect
	github.com/moby/spdystream v0.2.0 // indirect
	github.com/modern-go/concurrent v0.0.0-20180306012644-bacd9c7ef1dd // indirect
	github.com/modern-go/reflect2 v1.0.2 // indirect
	github.com/morikuni/aec v1.0.0 // indirect
	github.com/onsi/ginkgo v1.16.5 // indirect
	github.com/onsi/gomega v1.17.0 // indirect
	github.com/opencontainers/go-digest v1.0.0 // indirect
	github.com/opencontainers/image-spec v1.0.2 // indirect
	github.com/peterh/liner v1.2.2 // indirect
	github.com/pmezard/go-difflib v1.0.0 // indirect
	github.com/prometheus/client_model v0.2.0 // indirect
	github.com/prometheus/procfs v0.7.3 // indirect
	github.com/rivo/uniseg v0.2.0 // indirect
	github.com/russross/blackfriday/v2 v2.1.0 // indirect
	github.com/segmentio/backo-go v1.0.0 // indirect
	github.com/shurcooL/sanitized_anchor_name v1.0.0 // indirect
	github.com/sirupsen/logrus v1.8.1 // indirect
	github.com/xtgo/uuid v0.0.0-20140804021211-a0b114877d4c // indirect
	github.com/yusufpapurcu/wmi v1.2.2 // indirect
	gitlab.com/g-ogawa/go-input v0.0.0-20200503032952-8b67a7a7b28d // indirect
	gitlab.com/g-ogawa/yaml v0.0.0-20220124054858-84957c40e44e // indirect
	go.opencensus.io v0.23.0 // indirect
	go.starlark.net v0.0.0-20211203141949-70c0e40ae128 // indirect
	go.uber.org/atomic v1.7.0 // indirect
	go.uber.org/goleak v1.1.12 // indirect
	go.uber.org/multierr v1.6.0 // indirect
	golang.org/x/arch v0.0.0-20210923205945-b76863e36670 // indirect
	golang.org/x/crypto v0.0.0-20210921155107-089bfa567519 // indirect
	golang.org/x/lint v0.0.0-20210508222113-6edffad5e616 // indirect
	golang.org/x/mod v0.5.1 // indirect
	golang.org/x/net v0.0.0-20220121210141-e204ce36a2ba // indirect
	golang.org/x/sys v0.0.0-20220114195835-da31bd327af9 // indirect
	golang.org/x/term v0.0.0-20210927222741-03fcf44c2211 // indirect
	golang.org/x/text v0.3.7 // indirect
	golang.org/x/time v0.0.0-20211116232009-f0f3c7e86c11 // indirect
	golang.org/x/tools v0.1.8 // indirect
	golang.org/x/xerrors v0.0.0-20200804184101-5ec99f83aff1 // indirect
	google.golang.org/appengine v1.6.7 // indirect
	google.golang.org/protobuf v1.27.1 // indirect
	gopkg.in/inf.v0 v0.9.1 // indirect
	gopkg.in/yaml.v2 v2.4.0 // indirect
	gopkg.in/yaml.v3 v3.0.0-20210107192922-496545a6307b // indirect
	istio.io/gogo-genproto v0.0.0-20210113155706-4daf5697332f // indirect
	k8s.io/klog/v2 v2.40.1 // indirect
	k8s.io/kube-openapi v0.0.0-20220114203427-a0453230fd26 // indirect
	k8s.io/utils v0.0.0-20211208161948-7d6a63dca704 // indirect
	sigs.k8s.io/json v0.0.0-20211208200746-9f7c6b3444d2 // indirect
	sigs.k8s.io/structured-merge-diff/v4 v4.2.1 // indirect
	sigs.k8s.io/yaml v1.3.0 // indirect
)

replace github.com/docker/docker => github.com/docker/engine v17.12.0-ce-rc1.0.20200916142827-bd33bbf0497b+incompatible
